<?xml version="1.0" encoding="utf-8"?>
<!-- Generator: Adobe Illustrator 22.1.0, SVG Export Plug-In . SVG Version: 6.00 Build 0)  -->
<svg version="1.1" id="Верхняя_часть_головы"
	 xmlns="http://www.w3.org/2000/svg" xmlns:xlink="http://www.w3.org/1999/xlink" x="0px" y="0px" viewBox="0 0 90.5 120.5"
	 style="enable-background:new 0 0 90.5 120.5;" xml:space="preserve">
<style type="text/css">
	.st0{fill:#FFFFFF;fill-opacity:0.3;stroke:#952642;}
	.st1{fill:#952642;}
</style>
<path id="Эллипс_1" class="st0" d="M46.1,1c24.2-1.3,43.4,19.2,43.4,37.5c0,12.7-5.2,32-17.3,37.8c-5.3,2.5,0,15.1,0,15.1
	L35.3,120c0,0-3.9-27.2-6.5-26.5c-6.7,1.9-12.5,5.2-19.9-1c-2-1.7,0.2-8.8,0.3-14.4c0.2-6.8,0-11,0-11c1-0.6-6.8-0.4-8.7-4.4
	c-0.9-1.9,7.4-6.4,6.5-24.3C6.2,20.2,24.1,2.1,46.1,1z"/>
<path id="Фигура_2" class="st1" d="M90.5,36.8c0.5,16.6-7.3,37.4-21.6,41.8c-1.9,0.6-6.3-15.5-6.3-15.5s5.9-27.4-10.5-15.5
	c-2,1.5-4.2,11-4.2,11h-2.1c0,0-2.3-22.9-8.5-28.8c-2.7-1.7-5.5-3.1-8.4-4.4c-5-2.3-8.4-2.3-8.5-2.2c0,0-12.8,0-14.8-4.4
	C1.1,8.9,5,0.1,14.1,7.9c0.3,0.2,41.1-16,56.6-2.7C82,13,90.2,25.1,90.5,36.8z"/>
</svg>
